
************* 12-09-2019 12:34:28 *************
12-09-2019 12:34:28-- API Call Success.------API called http://localhost:44762//search/createindex/awctqaguard2019/PRODUCTION/13/757/757 
***********************************************

************* 12-09-2019 12:34:28 *************
Indexer|13|awctqaguard2019|12|757|Manually|http://localhost:44762/|2|757|PRODUCTION|bG9jYWxob3N0OjY3NjZ8|0|600000
***********************************************
