
************* 15-12-2020 11:29:09 *************
15-12-2020 11:29:09-- API Call Success.------API called http://localhost:44762//search/createindex/guard-2020indexv4/PREVIEW/17/1549/1549 
***********************************************

************* 15-12-2020 11:29:09 *************
Indexer|17|guard-2020indexv4|16|1549|Manually|http://localhost:44762/|538932|1549|PREVIEW|bG9jYWxob3N0OjY3NjZ8|0|600000
***********************************************

************* 15-12-2020 11:29:23 *************
15-12-2020 11:29:23-- API Call Success.------API called http://localhost:44762//search/createindex/guard-2020indexv4/PRODUCTION/17/1550/1550 
***********************************************

************* 15-12-2020 11:29:23 *************
Indexer|17|guard-2020indexv4|16|1550|Manually|http://localhost:44762/|538932|1550|PRODUCTION|bG9jYWxob3N0OjY3NjZ8|0|600000
***********************************************
