
************* 13-04-2020 17:02:16 *************
13-04-2020 17:02:16-- API Call Success.------API called http://localhost:44762//search/createindex/awctdance2020new/PRODUCTION/12/883/883 
***********************************************

************* 13-04-2020 17:02:16 *************
Indexer|12|awctdance2020new|11|883|Manually|http://localhost:44762/|2|883|PRODUCTION|bG9jYWxob3N0OjY3NjZ8|0|600000
***********************************************
