
************* 17-06-2020 18:12:02 *************
17-06-2020 18:12:02-- API Call Success.------API called http://localhost:44762//search/createindex/guard-2020indexv2/PREVIEW/17/1131/1131 
***********************************************

************* 17-06-2020 18:12:03 *************
Indexer|17|guard-2020indexv2|16|1131|Manually|http://localhost:44762/|2|1131|PREVIEW|bG9jYWxob3N0OjY3NjZ8|0|600000
***********************************************

************* 17-06-2020 18:19:39 *************
17-06-2020 18:19:39-- API Call Success.------API called http://localhost:44762//search/createindex/guard-2020indexv2/PRODUCTION/17/1132/1132 
***********************************************

************* 17-06-2020 18:19:39 *************
Indexer|17|guard-2020indexv2|16|1132|Manually|http://localhost:44762/|2|1132|PRODUCTION|bG9jYWxob3N0OjY3NjZ8|0|600000
***********************************************
